UF,CNAE,D1,D2,D3
UF1,C1,1,1,0
UF1,C1,1,1,0
UF1,C1,1,1,0
UF1,C1,1,1,0
UF1,C1,1,1,0
UF1,C1,1,1,0
UF1,C1,1,1,1
UF1,C1,1,0,1
UF1,C1,1,0,1
UF1,C1,1,0,1
UF1,C1,1,0,1
UF1,C1,1,0,1
UF1,C1,1,0,1
UF1,C1,1,0,1
UF1,C1,1,0,1
UF1,C1,0,0,1
UF1,C1,0,0,1
UF1,C1,0,0,1
UF1,C1,0,0,0
UF1,C1,0,0,0
UF1,C2,1,0,0
UF1,C2,1,0,0
UF1,C2,1,0,0
UF1,C2,1,0,0
UF1,C2,1,0,0
UF2,C2,1,0,0
UF2,C2,1,0,0
UF2,C2,1,0,1
UF2,C2,1,0,1
UF2,C2,1,0,1
UF2,C2,0,0,1
UF2,C2,0,0,1
UF2,C2,0,0,1
UF2,C2,0,0,1
UF2,C2,0,0,1
UF2,C2,0,0,1
UF2,C2,0,0,1
UF2,C2,0,1,1
UF2,C2,0,1,1
UF2,C2,0,1,1
UF2,C2,0,1,0
UF2,C2,0,0,0
UF2,C2,0,0,0
UF2,C2,0,0,0
UF2,C2,0,0,0
UF2,C2,0,0,0
UF2,C2,0,0,0
UF2,C2,0,0,0
UF2,C2,0,0,0
UF2,C2,0,0,0
